{
  "newTeachers": [
    {
      "full_name": "Victor",
      "sex": "Male",
      "title": "Default title",
      "note": "Default note",
      "state": "Random state",
      "city": "Terebovliya",
      "country": "Ukraine",
      "age": 27,
      "phone": "097-060-6804",
      "email": "victor@ukr.net",
      "id": "CNlcV2S"
    },
    {
      "full_name": "Angelina Doroshenko",
      "gender": "Female",
      "title": "Default title",
      "note": "Default note",
      "state": "Random state",
      "city": "Zbarazh",
      "country": "Ukraine",
      "age": 18,
      "phone": "098-060-6804",
      "email": "Angelina@ukr.net",
      "id": "RffzIwJ"
    },
    {
      "full_name": "Angelina Doroshenko",
      "gender": "Female",
      "title": "Default title",
      "note": "Default note",
      "state": "Random state",
      "city": "Zbarazh",
      "country": "Ukraine",
      "age": 18,
      "phone": "098-060-6804",
      "email": "Angelina@ukr.net",
      "id": "VJTxv7V"
    },
    {
      "full_name": "Angelina Doroshenko",
      "gender": "Female",
      "title": "Default title",
      "note": "Default note",
      "state": "Random state",
      "city": "Zbarazh",
      "country": "Ukraine",
      "age": 19,
      "phone": "098-060-6804",
      "email": "Angelina@ukr.net",
      "id": "Zw8ST8K"
    },
    {
      "full_name": "Angelina Doroshenko",
      "gender": "Female",
      "title": "Default title",
      "note": "Default note",
      "state": "Random state",
      "city": "Zbarazh",
      "country": "Ukraine",
      "age": 19,
      "phone": "098-060-6804",
      "email": "Angelina@ukr.net",
      "id": "ROwyoGJ"
    }
  ]
}